﻿{
"searchContainerSQL" : "SELECT 
	c.CN_I || c.CHK_DGT_I as "ContainerId", c.SIZETYPE_SIZE_AN as "Size", c.SIZETYPE_TYPE_AN as "Type", c.SIZETYPE_HEIGHT_AN as "Hgt", 
  c.CNTR_LOAD_STATUS_CODE as "FE", NVL(c.MASTER_BOL_AN,'') as "BOL",
  c.POL_I as "POL", c.POD_I as "POD",
	CASE 
		WHEN c.LOC_S = 'Y' THEN 'In-Yard'
		WHEN c.LOC_S = 'V' THEN 'Vessel'
		WHEN c.LOC_S = 'I' THEN 'Out'
	ELSE
  '' END
  AS "Location",
  to_char(c.ARRIVAL_TM, 'dd-mm-yyyy')  as "InDate",    
  c.CNTR_YARD_AGE as "Age",
  c.SHIPPING_STATUS_CODE as "SS", t.CONTAINER_TYPE_DS as "TypeDescription", c.CURRENT_POSITION_AN as "CurrentPosition"
FROM TMV_CNTR_GRP1 c INNER JOIN TMV_CONTAINER_TYPE t  
ON t.CONTAINER_TYPE_C = c.CONTAINER_TYPE_C 
WHERE c.MASTER_BOL_AN = '@bol';"
}
